{
  "name": "character-builder",
  "title": "Character Builder",
  "description": "Character building toolset",
  "version": "",
  "author": "Sunspots",
  "scripts": [],
  "esmodules": ["character-builder.js"],
  "styles": ["./character-builder.css"],
  "packs": [],
  "languages": [
    {
      "lang": "en",
      "name": "English",
      "path": "lang/en.json"
    }
  ],
  "minimumCoreVersion": "0.6.5",
  "compatibleCoreVersion": "0.6.5",
  "url": "",
  "manifest": "",
  "download": "",
  "license": "",
  "readme": "",
  "bugs": "",
  "changelog": "https://gitlab.com/fvtt-modules-lab/character-builder/-/blob/master/CHANGELOG.md"
}
